gene_oid	gene_length	feature_type	start_coord	end_coord
2735310460	104	outside	1	104
2735310461	156	outside	1	156
2735310462	265	outside	1	265
2735310463	58	inside	1	58
2735310464	258	outside	1	258
2735310465	324	outside	1	324
2735310466	90	inside	1	11
2735310466	90	TMhelix	12	34
2735310466	90	outside	35	90
2735310467	350	inside	1	6
2735310467	350	TMhelix	7	29
2735310467	350	outside	30	350
2735310468	338	outside	1	338
2735310469	327	outside	1	30
2735310469	327	TMhelix	31	50
2735310469	327	inside	51	56
2735310469	327	TMhelix	57	79
2735310469	327	outside	80	93
2735310469	327	TMhelix	94	116
2735310469	327	inside	117	128
2735310469	327	TMhelix	129	151
2735310469	327	outside	152	154
2735310469	327	TMhelix	155	172
2735310469	327	inside	173	237
2735310469	327	TMhelix	238	255
2735310469	327	outside	256	259
2735310469	327	TMhelix	260	282
2735310469	327	inside	283	327
2735310470	118	outside	1	118
2735310471	387	outside	1	387
2735310472	106	outside	1	106
2735310473	806	outside	1	806
2735310474	480	outside	1	480
2735310475	389	inside	1	6
2735310475	389	TMhelix	7	26
2735310475	389	outside	27	35
2735310475	389	TMhelix	36	58
2735310475	389	inside	59	64
2735310475	389	TMhelix	65	84
2735310475	389	outside	85	87
2735310475	389	TMhelix	88	110
2735310475	389	inside	111	121
2735310475	389	TMhelix	122	144
2735310475	389	outside	145	147
2735310475	389	TMhelix	148	170
2735310475	389	inside	171	216
2735310475	389	TMhelix	217	239
2735310475	389	outside	240	243
2735310475	389	TMhelix	244	266
2735310475	389	inside	267	277
2735310475	389	TMhelix	278	300
2735310475	389	outside	301	304
2735310475	389	TMhelix	305	327
2735310475	389	inside	328	338
2735310475	389	TMhelix	339	361
2735310475	389	outside	362	364
2735310475	389	TMhelix	365	384
2735310475	389	inside	385	389
2735310476	206	outside	1	19
2735310476	206	TMhelix	20	42
2735310476	206	inside	43	69
2735310476	206	TMhelix	70	92
2735310476	206	outside	93	96
2735310476	206	TMhelix	97	119
2735310476	206	inside	120	139
2735310476	206	TMhelix	140	162
2735310476	206	outside	163	171
2735310476	206	TMhelix	172	194
2735310476	206	inside	195	206
2735310478	338	outside	1	338
2735310479	306	outside	1	306
2735310480	437	outside	1	437
2735310481	138	inside	1	12
2735310481	138	TMhelix	13	35
2735310481	138	outside	36	39
2735310481	138	TMhelix	40	62
2735310481	138	inside	63	66
2735310481	138	TMhelix	67	89
2735310481	138	outside	90	103
2735310481	138	TMhelix	104	124
2735310481	138	inside	125	138
2735310482	65	outside	1	65
2735310483	400	outside	1	400
2735310485	96	outside	1	96
2735310486	64	outside	1	64
2735310487	171	outside	1	171
2735310488	356	outside	1	356
2735310491	197	outside	1	197
2735310493	163	inside	1	12
2735310493	163	TMhelix	13	35
2735310493	163	outside	36	38
2735310493	163	TMhelix	39	61
2735310493	163	inside	62	81
2735310493	163	TMhelix	82	104
2735310493	163	outside	105	118
2735310493	163	TMhelix	119	141
2735310493	163	inside	142	163
2735310494	478	outside	1	478
2735310495	399	outside	1	399
2735310496	135	outside	1	135
2735310497	282	outside	1	282
2735310498	86	inside	1	8
2735310498	86	TMhelix	9	31
2735310498	86	outside	32	45
2735310498	86	TMhelix	46	68
2735310498	86	inside	69	86
2735310499	157	inside	1	157
2735310500	381	outside	1	381
2735310501	225	outside	1	225
2735310502	669	inside	1	78
2735310502	669	TMhelix	79	96
2735310502	669	outside	97	99
2735310502	669	TMhelix	100	122
2735310502	669	inside	123	253
2735310502	669	TMhelix	254	276
2735310502	669	outside	277	279
2735310502	669	TMhelix	280	302
2735310502	669	inside	303	333
2735310502	669	TMhelix	334	356
2735310502	669	outside	357	365
2735310502	669	TMhelix	366	388
2735310502	669	inside	389	528
2735310502	669	TMhelix	529	551
2735310502	669	outside	552	594
2735310502	669	TMhelix	595	617
2735310502	669	inside	618	636
2735310502	669	TMhelix	637	659
2735310502	669	outside	660	669
2735310503	747	outside	1	747
2735310504	120	outside	1	120
2735310505	233	outside	1	233
2735310506	131	inside	1	6
2735310506	131	TMhelix	7	29
2735310506	131	outside	30	131
2735310507	241	outside	1	241
2735310508	171	outside	1	171
2735310509	383	outside	1	383
2735310510	135	outside	1	135
2735310511	230	outside	1	230
2735310512	426	outside	1	426
2735310513	360	outside	1	360
2735310514	230	outside	1	230
2735310515	250	outside	1	23
2735310515	250	TMhelix	24	46
2735310515	250	inside	47	50
2735310515	250	TMhelix	51	73
2735310515	250	outside	74	82
2735310515	250	TMhelix	83	105
2735310515	250	inside	106	111
2735310515	250	TMhelix	112	129
2735310515	250	outside	130	132
2735310515	250	TMhelix	133	152
2735310515	250	inside	153	156
2735310515	250	TMhelix	157	179
2735310515	250	outside	180	189
2735310515	250	TMhelix	190	212
2735310515	250	inside	213	223
2735310515	250	TMhelix	224	246
2735310515	250	outside	247	250
2735310516	129	outside	1	129
2735310517	223	outside	1	223
2735310518	243	outside	1	243
2735310519	86	outside	1	86
2735310520	275	outside	1	275
2735310521	549	inside	1	11
2735310521	549	TMhelix	12	34
2735310521	549	outside	35	38
2735310521	549	TMhelix	39	61
2735310521	549	inside	62	187
2735310521	549	TMhelix	188	210
2735310521	549	outside	211	213
2735310521	549	TMhelix	214	236
2735310521	549	inside	237	256
2735310521	549	TMhelix	257	279
2735310521	549	outside	280	283
2735310521	549	TMhelix	284	306
2735310521	549	inside	307	429
2735310521	549	TMhelix	430	452
2735310521	549	outside	453	455
2735310521	549	TMhelix	456	475
2735310521	549	inside	476	481
2735310521	549	TMhelix	482	504
2735310521	549	outside	505	518
2735310521	549	TMhelix	519	541
2735310521	549	inside	542	549
2735310522	162	outside	1	162
2735310523	408	outside	1	408
2735310524	176	outside	1	176
2735310525	398	outside	1	398
2735310526	212	outside	1	212
2735310527	246	outside	1	246
2735310528	253	outside	1	253
2735310529	139	inside	1	8
2735310529	139	TMhelix	9	31
2735310529	139	outside	32	139
2735310530	85	outside	1	85
2735310531	322	outside	1	322
2735310532	219	outside	1	219
2735310533	253	outside	1	253
2735310534	249	outside	1	249
2735310535	516	outside	1	516
2735310536	176	outside	1	176
2735310537	363	outside	1	363
2735310538	234	outside	1	234
2735310539	151	outside	1	151
2735310540	323	outside	1	323
2735310541	98	outside	1	98
2735310542	122	outside	1	122
2735310544	257	outside	1	257
2735310545	111	outside	1	14
2735310545	111	TMhelix	15	36
2735310545	111	inside	37	42
2735310545	111	TMhelix	43	65
2735310545	111	outside	66	77
2735310545	111	TMhelix	78	100
2735310545	111	inside	101	111
2735310546	539	outside	1	539
2735310547	194	inside	1	145
2735310547	194	TMhelix	146	168
2735310547	194	outside	169	194
2735310548	108	outside	1	108
2735310549	29	inside	1	29
2735310550	222	outside	1	222
2735310551	221	outside	1	221
2735310552	852	outside	1	65
2735310552	852	TMhelix	66	88
2735310552	852	inside	89	235
2735310552	852	TMhelix	236	258
2735310552	852	outside	259	267
2735310552	852	TMhelix	268	290
2735310552	852	inside	291	663
2735310552	852	TMhelix	664	686
2735310552	852	outside	687	689
2735310552	852	TMhelix	690	712
2735310552	852	inside	713	738
2735310552	852	TMhelix	739	757
2735310552	852	outside	758	761
2735310552	852	TMhelix	762	779
2735310552	852	inside	780	791
2735310552	852	TMhelix	792	811
2735310552	852	outside	812	820
2735310552	852	TMhelix	821	843
2735310552	852	inside	844	852
2735310553	375	outside	1	245
2735310553	375	TMhelix	246	268
2735310553	375	inside	269	272
2735310553	375	TMhelix	273	295
2735310553	375	outside	296	304
2735310553	375	TMhelix	305	327
2735310553	375	inside	328	333
2735310553	375	TMhelix	334	356
2735310553	375	outside	357	375
2735310554	327	outside	1	327
2735310555	146	outside	1	146
2735310557	218	outside	1	218
2735310558	937	outside	1	937
2735310559	205	outside	1	205
2735310560	382	outside	1	382
2735310561	440	inside	1	4
2735310561	440	TMhelix	5	24
2735310561	440	outside	25	440
2735310562	287	outside	1	287
2735310564	135	outside	1	5
2735310564	135	TMhelix	6	28
2735310564	135	inside	29	135
2735310565	68	inside	1	68
2735310566	305	outside	1	305
2735310567	187	outside	1	187
2735310568	195	outside	1	195
2735310569	295	inside	1	30
2735310569	295	TMhelix	31	53
2735310569	295	outside	54	99
2735310569	295	TMhelix	100	122
2735310569	295	inside	123	153
2735310569	295	TMhelix	154	176
2735310569	295	outside	177	180
2735310569	295	TMhelix	181	203
2735310569	295	inside	204	215
2735310569	295	TMhelix	216	233
2735310569	295	outside	234	267
2735310569	295	TMhelix	268	290
2735310569	295	inside	291	295
2735310570	331	outside	1	331
2735310571	114	outside	1	114
2735310572	122	outside	1	122
2735310573	322	outside	1	322
2735310574	476	outside	1	476
2735310575	256	outside	1	256
2735310576	703	outside	1	703
2735310577	65	inside	1	6
2735310577	65	TMhelix	7	24
2735310577	65	outside	25	38
2735310577	65	TMhelix	39	58
2735310577	65	inside	59	65
2735310578	248	outside	1	248
2735310579	103	outside	1	103
2735310580	203	outside	1	203
2735310581	218	outside	1	218
2735310582	411	outside	1	411
2735310583	133	outside	1	133
2735310584	117	outside	1	117
2735310585	297	outside	1	297
2735310586	85	inside	1	6
2735310586	85	TMhelix	7	26
2735310586	85	outside	27	30
2735310586	85	TMhelix	31	53
2735310586	85	inside	54	85
2735310587	173	outside	1	173
2735310588	229	outside	1	229
2735310589	199	outside	1	199
2735310590	325	outside	1	325
2735310591	83	outside	1	83
2735310592	72	outside	1	72
2735310593	139	outside	1	139
2735310595	563	inside	1	6
2735310595	563	TMhelix	7	29
2735310595	563	outside	30	563
2735310597	602	outside	1	602
2735310598	392	inside	1	20
2735310598	392	TMhelix	21	43
2735310598	392	outside	44	265
2735310598	392	TMhelix	266	288
2735310598	392	inside	289	308
2735310598	392	TMhelix	309	331
2735310598	392	outside	332	350
2735310598	392	TMhelix	351	373
2735310598	392	inside	374	392
2735310599	476	inside	1	4
2735310599	476	TMhelix	5	22
2735310599	476	outside	23	448
2735310599	476	TMhelix	449	468
2735310599	476	inside	469	476
2735310600	232	outside	1	232
2735310601	211	outside	1	211
2735310602	100	outside	1	100
2735310603	102	outside	1	102
2735310604	223	outside	1	223
2735310606	131	outside	1	131
2735310607	357	inside	1	187
2735310607	357	TMhelix	188	206
2735310607	357	outside	207	357
2735310609	216	inside	1	6
2735310609	216	TMhelix	7	29
2735310609	216	outside	30	81
2735310609	216	TMhelix	82	100
2735310609	216	inside	101	112
2735310609	216	TMhelix	113	130
2735310609	216	outside	131	134
2735310609	216	TMhelix	135	154
2735310609	216	inside	155	216
2735310610	203	outside	1	4
2735310610	203	TMhelix	5	24
2735310610	203	inside	25	49
2735310610	203	TMhelix	50	72
2735310610	203	outside	73	86
2735310610	203	TMhelix	87	109
2735310610	203	inside	110	121
2735310610	203	TMhelix	122	144
2735310610	203	outside	145	158
2735310610	203	TMhelix	159	181
2735310610	203	inside	182	203
2735310611	186	outside	1	186
2735310612	460	outside	1	460
2735310613	130	outside	1	130
2735310614	168	outside	1	168
2735310615	152	outside	1	152
2735310616	292	inside	1	18
2735310616	292	TMhelix	19	38
2735310616	292	outside	39	133
2735310616	292	TMhelix	134	156
2735310616	292	inside	157	162
2735310616	292	TMhelix	163	182
2735310616	292	outside	183	191
2735310616	292	TMhelix	192	214
2735310616	292	inside	215	226
2735310616	292	TMhelix	227	249
2735310616	292	outside	250	258
2735310616	292	TMhelix	259	281
2735310616	292	inside	282	292
2735310617	604	inside	1	4
2735310617	604	TMhelix	5	27
2735310617	604	outside	28	604
2735310618	674	inside	1	6
2735310618	674	TMhelix	7	24
2735310618	674	outside	25	674
2735310619	240	outside	1	240
2735310620	60	inside	1	60
2735310621	238	outside	1	238
2735310622	248	outside	1	248
2735310623	466	outside	1	466
2735310624	552	outside	1	552
2735310625	70	outside	1	70
2735310626	528	outside	1	528
2735310628	205	outside	1	205
2735310629	105	outside	1	105
2735310630	204	outside	1	204
2735310631	432	outside	1	432
2735310632	547	outside	1	547
2735310633	155	outside	1	155
2735310634	122	inside	1	6
2735310634	122	TMhelix	7	29
2735310634	122	outside	30	33
2735310634	122	TMhelix	34	56
2735310634	122	inside	57	62
2735310634	122	TMhelix	63	85
2735310634	122	outside	86	94
2735310634	122	TMhelix	95	117
2735310634	122	inside	118	122
2735310635	213	outside	1	213
2735310636	331	outside	1	331
2735310637	335	inside	1	11
2735310637	335	TMhelix	12	34
2735310637	335	outside	35	335
2735310638	143	inside	1	6
2735310638	143	TMhelix	7	25
2735310638	143	outside	26	34
2735310638	143	TMhelix	35	57
2735310638	143	inside	58	69
2735310638	143	TMhelix	70	92
2735310638	143	outside	93	101
2735310638	143	TMhelix	102	119
2735310638	143	inside	120	127
2735310638	143	TMhelix	128	142
2735310638	143	outside	143	143
2735310639	210	inside	1	12
2735310639	210	TMhelix	13	32
2735310639	210	outside	33	56
2735310639	210	TMhelix	57	79
2735310639	210	inside	80	99
2735310639	210	TMhelix	100	122
2735310639	210	outside	123	126
2735310639	210	TMhelix	127	149
2735310639	210	inside	150	210
2735310640	47	outside	1	47
2735310641	47	outside	1	47
2735310642	413	outside	1	413
2735310643	340	outside	1	340
2735310644	274	outside	1	274
2735310645	262	outside	1	262
2735310646	396	inside	1	6
2735310646	396	TMhelix	7	29
2735310646	396	outside	30	396
2735310648	192	outside	1	192
2735310649	357	outside	1	357
2735310650	145	outside	1	145
2735310651	61	outside	1	27
2735310651	61	TMhelix	28	50
2735310651	61	inside	51	61
2735310652	159	outside	1	159
2735310653	217	outside	1	217
2735310654	287	outside	1	287
2735310655	208	outside	1	208
2735310656	279	outside	1	279
2735310657	297	outside	1	9
2735310657	297	TMhelix	10	32
2735310657	297	inside	33	44
2735310657	297	TMhelix	45	67
2735310657	297	outside	68	70
2735310657	297	TMhelix	71	93
2735310657	297	inside	94	113
2735310657	297	TMhelix	114	136
2735310657	297	outside	137	155
2735310657	297	TMhelix	156	178
2735310657	297	inside	179	184
2735310657	297	TMhelix	185	202
2735310657	297	outside	203	205
2735310657	297	TMhelix	206	225
2735310657	297	inside	226	231
2735310657	297	TMhelix	232	254
2735310657	297	outside	255	268
2735310657	297	TMhelix	269	291
2735310657	297	inside	292	297
2735310658	453	outside	1	14
2735310658	453	TMhelix	15	37
2735310658	453	inside	38	57
2735310658	453	TMhelix	58	80
2735310658	453	outside	81	92
2735310658	453	TMhelix	93	115
2735310658	453	inside	116	127
2735310658	453	TMhelix	128	150
2735310658	453	outside	151	178
2735310658	453	TMhelix	179	201
2735310658	453	inside	202	220
2735310658	453	TMhelix	221	243
2735310658	453	outside	244	330
2735310658	453	TMhelix	331	353
2735310658	453	inside	354	373
2735310658	453	TMhelix	374	396
2735310658	453	outside	397	422
2735310658	453	TMhelix	423	445
2735310658	453	inside	446	453
2735310659	161	outside	1	161
2735310660	201	outside	1	201
2735310661	271	inside	1	6
2735310661	271	TMhelix	7	29
2735310661	271	outside	30	62
2735310661	271	TMhelix	63	85
2735310661	271	inside	86	96
2735310661	271	TMhelix	97	114
2735310661	271	outside	115	117
2735310661	271	TMhelix	118	140
2735310661	271	inside	141	146
2735310661	271	TMhelix	147	169
2735310661	271	outside	170	172
2735310661	271	TMhelix	173	195
2735310661	271	inside	196	214
2735310661	271	TMhelix	215	237
2735310661	271	outside	238	246
2735310661	271	TMhelix	247	264
2735310661	271	inside	265	271
2735310662	142	outside	1	142
2735310663	90	outside	1	90
2735310664	364	outside	1	364
2735310665	890	outside	1	890
2735310666	600	outside	1	600
2735310667	505	outside	1	505
2735310668	104	inside	1	104
2735310669	283	outside	1	283
2735310670	135	outside	1	135
2735310671	361	inside	1	20
2735310671	361	TMhelix	21	55
2735310671	361	outside	56	64
2735310671	361	TMhelix	65	84
2735310671	361	inside	85	85
2735310671	361	TMhelix	86	105
2735310671	361	outside	106	117
2735310671	361	TMhelix	118	152
2735310671	361	inside	153	171
2735310671	361	TMhelix	172	194
2735310671	361	outside	195	208
2735310671	361	TMhelix	209	231
2735310671	361	inside	232	243
2735310671	361	TMhelix	244	263
2735310671	361	outside	264	267
2735310671	361	TMhelix	268	290
2735310671	361	inside	291	298
2735310671	361	TMhelix	299	321
2735310671	361	outside	322	330
2735310671	361	TMhelix	331	353
2735310671	361	inside	354	361
2735310672	276	outside	1	276
2735310673	199	outside	1	199
2735310674	128	outside	1	128
2735310675	87	outside	1	87
2735310676	67	outside	1	67
2735310677	94	inside	1	94
2735310678	103	outside	1	3
2735310678	103	TMhelix	4	23
2735310678	103	inside	24	43
2735310678	103	TMhelix	44	66
2735310678	103	outside	67	69
2735310678	103	TMhelix	70	87
2735310678	103	inside	88	103
2735310679	620	inside	1	126
2735310679	620	TMhelix	127	149
2735310679	620	outside	150	152
2735310679	620	TMhelix	153	175
2735310679	620	inside	176	620
2735310680	321	inside	1	11
2735310680	321	TMhelix	12	34
2735310680	321	outside	35	43
2735310680	321	TMhelix	44	66
2735310680	321	inside	67	85
2735310680	321	TMhelix	86	103
2735310680	321	outside	104	107
2735310680	321	TMhelix	108	125
2735310680	321	inside	126	145
2735310680	321	TMhelix	146	168
2735310680	321	outside	169	193
2735310680	321	TMhelix	194	212
2735310680	321	inside	213	224
2735310680	321	TMhelix	225	247
2735310680	321	outside	248	280
2735310680	321	TMhelix	281	312
2735310680	321	inside	313	321
2735310681	308	outside	1	308
2735310682	92	outside	1	92
2735310683	238	outside	1	238
2735310684	229	outside	1	229
2735310685	222	inside	1	11
2735310685	222	TMhelix	12	34
2735310685	222	outside	35	59
2735310685	222	TMhelix	60	82
2735310685	222	inside	83	88
2735310685	222	TMhelix	89	111
2735310685	222	outside	112	132
2735310685	222	TMhelix	133	155
2735310685	222	inside	156	175
2735310685	222	TMhelix	176	198
2735310685	222	outside	199	222
2735310686	539	outside	1	539
2735310687	220	outside	1	220
2735310688	104	outside	1	104
2735310689	391	outside	1	391
2735310690	398	outside	1	398
2735310691	534	outside	1	534
2735310692	304	outside	1	304
2735310694	283	inside	1	113
2735310694	283	TMhelix	114	133
2735310694	283	outside	134	283
2735310695	521	inside	1	6
2735310695	521	TMhelix	7	29
2735310695	521	outside	30	521
2735310696	148	inside	1	6
2735310696	148	TMhelix	7	29
2735310696	148	outside	30	148
2735310697	159	outside	1	4
2735310697	159	TMhelix	5	27
2735310697	159	inside	28	159
2735310698	271	outside	1	271
2735310699	289	outside	1	289
2735310700	147	outside	1	147
2735310701	317	outside	1	317
2735310702	207	outside	1	207
2735310703	928	outside	1	928
2735310706	314	outside	1	314
2735310707	225	outside	1	225
2735310708	191	outside	1	191
2735310709	131	outside	1	9
2735310709	131	TMhelix	10	32
2735310709	131	inside	33	131
2735310710	114	inside	1	6
2735310710	114	TMhelix	7	29
2735310710	114	outside	30	114
2735310711	92	outside	1	4
2735310711	92	TMhelix	5	24
2735310711	92	inside	25	92
2735310713	333	outside	1	162
2735310713	333	TMhelix	163	185
2735310713	333	inside	186	205
2735310713	333	TMhelix	206	228
2735310713	333	outside	229	237
2735310713	333	TMhelix	238	257
2735310713	333	inside	258	263
2735310713	333	TMhelix	264	286
2735310713	333	outside	287	295
2735310713	333	TMhelix	296	318
2735310713	333	inside	319	333
2735310714	67	outside	1	67
2735310715	156	outside	1	156
2735310716	148	inside	1	148
2735310717	429	outside	1	429
2735310718	352	inside	1	224
2735310718	352	TMhelix	225	247
2735310718	352	outside	248	256
2735310718	352	TMhelix	257	279
2735310718	352	inside	280	298
2735310718	352	TMhelix	299	321
2735310718	352	outside	322	325
2735310718	352	TMhelix	326	345
2735310718	352	inside	346	352
2735310719	54	inside	1	54
2735310720	252	outside	1	252
2735310721	156	outside	1	156
2735310722	185	outside	1	185
2735310723	327	outside	1	327
2735310724	346	outside	1	346
2735310725	229	outside	1	229
2735310726	90	outside	1	90
2735310727	251	outside	1	251
2735310728	150	outside	1	150
2735310729	52	inside	1	29
2735310729	52	TMhelix	30	49
2735310729	52	outside	50	52
2735310730	561	outside	1	561
2735310732	497	outside	1	497
2735310733	459	inside	1	222
2735310733	459	TMhelix	223	245
2735310733	459	outside	246	248
2735310733	459	TMhelix	249	271
2735310733	459	inside	272	398
2735310733	459	TMhelix	399	421
2735310733	459	outside	422	430
2735310733	459	TMhelix	431	453
2735310733	459	inside	454	459
2735310734	274	inside	1	4
2735310734	274	TMhelix	5	22
2735310734	274	outside	23	25
2735310734	274	TMhelix	26	48
2735310734	274	inside	49	168
2735310734	274	TMhelix	169	191
2735310734	274	outside	192	205
2735310734	274	TMhelix	206	228
2735310734	274	inside	229	240
2735310734	274	TMhelix	241	263
2735310734	274	outside	264	274
2735310735	136	outside	1	136
2735310736	165	outside	1	165
2735310737	402	outside	1	402
2735310739	38	inside	1	38
2735310740	326	outside	1	4
2735310740	326	TMhelix	5	27
2735310740	326	inside	28	47
2735310740	326	TMhelix	48	70
2735310740	326	outside	71	79
2735310740	326	TMhelix	80	102
2735310740	326	inside	103	108
2735310740	326	TMhelix	109	128
2735310740	326	outside	129	132
2735310740	326	TMhelix	133	152
2735310740	326	inside	153	172
2735310740	326	TMhelix	173	195
2735310740	326	outside	196	209
2735310740	326	TMhelix	210	232
2735310740	326	inside	233	244
2735310740	326	TMhelix	245	265
2735310740	326	outside	266	274
2735310740	326	TMhelix	275	297
2735310740	326	inside	298	303
2735310740	326	TMhelix	304	323
2735310740	326	outside	324	326
2735310741	171	outside	1	171
2735310742	454	outside	1	454
2735310743	196	inside	1	10
2735310743	196	TMhelix	11	30
2735310743	196	outside	31	44
2735310743	196	TMhelix	45	67
2735310743	196	inside	68	73
2735310743	196	TMhelix	74	96
2735310743	196	outside	97	134
2735310743	196	TMhelix	135	157
2735310743	196	inside	158	196
2735310744	286	inside	1	6
2735310744	286	TMhelix	7	29
2735310744	286	outside	30	286
2735310746	758	outside	1	734
2735310746	758	TMhelix	735	757
2735310746	758	inside	758	758
2735310747	205	outside	1	205
2735310748	161	outside	1	161
2735310750	221	outside	1	221
2735310751	270	outside	1	270
2735310752	233	outside	1	233
2735310754	868	outside	1	868
2735310755	286	outside	1	286
2735310756	102	outside	1	102
2735310757	372	outside	1	372
2735310758	395	outside	1	395
2735310759	157	inside	1	6
2735310759	157	TMhelix	7	29
2735310759	157	outside	30	157
2735310760	198	outside	1	198
2735310761	497	inside	1	6
2735310761	497	TMhelix	7	29
2735310761	497	outside	30	43
2735310761	497	TMhelix	44	66
2735310761	497	inside	67	497
2735310762	159	inside	1	4
2735310762	159	TMhelix	5	27
2735310762	159	outside	28	159
2735310763	282	inside	1	12
2735310763	282	TMhelix	13	35
2735310763	282	outside	36	282
2735310764	370	inside	1	8
2735310764	370	TMhelix	9	31
2735310764	370	outside	32	370
2735310765	313	inside	1	11
2735310765	313	TMhelix	12	34
2735310765	313	outside	35	313
2735310766	53	inside	1	8
2735310766	53	TMhelix	9	31
2735310766	53	outside	32	53
2735310767	61	inside	1	6
2735310767	61	TMhelix	7	29
2735310767	61	outside	30	61
2735310768	48	inside	1	6
2735310768	48	TMhelix	7	29
2735310768	48	outside	30	48
2735310769	406	inside	1	6
2735310769	406	TMhelix	7	29
2735310769	406	outside	30	406
2735310770	409	inside	1	6
2735310770	409	TMhelix	7	29
2735310770	409	outside	30	38
2735310770	409	TMhelix	39	61
2735310770	409	inside	62	385
2735310770	409	TMhelix	386	408
2735310770	409	outside	409	409
2735310771	385	inside	1	135
2735310771	385	TMhelix	136	158
2735310771	385	outside	159	385
2735310772	879	inside	1	11
2735310772	879	TMhelix	12	34
2735310772	879	outside	35	879
2735310773	62	outside	1	9
2735310773	62	TMhelix	10	32
2735310773	62	inside	33	62
2735310774	146	inside	1	8
2735310774	146	TMhelix	9	31
2735310774	146	outside	32	61
2735310774	146	TMhelix	62	84
2735310774	146	inside	85	90
2735310774	146	TMhelix	91	113
2735310774	146	outside	114	117
2735310774	146	TMhelix	118	140
2735310774	146	inside	141	146
2735310775	185	inside	1	34
2735310775	185	TMhelix	35	57
2735310775	185	outside	58	60
2735310775	185	TMhelix	61	83
2735310775	185	inside	84	185
2735310776	107	outside	1	107
2735310777	105	outside	1	105
2735310778	179	outside	1	179
2735310779	91	outside	1	91
2735310780	224	outside	1	224
2735310781	327	outside	1	327
2735310782	104	outside	1	104
2735310783	626	outside	1	626
2735310784	100	inside	1	12
2735310784	100	TMhelix	13	35
2735310784	100	outside	36	100
2735310786	101	outside	1	101
2735310787	47	inside	1	47
2735310788	149	inside	1	149
2735310789	150	outside	1	150
2735310790	197	outside	1	197
2735310791	205	outside	1	205
2735310792	616	outside	1	616
2735310793	202	outside	1	202
2735310794	326	outside	1	326
2735310795	208	outside	1	208
2735310796	172	inside	1	12
2735310796	172	TMhelix	13	35
2735310796	172	outside	36	39
2735310796	172	TMhelix	40	57
2735310796	172	inside	58	172
2735310797	164	inside	1	31
2735310797	164	TMhelix	32	54
2735310797	164	outside	55	58
2735310797	164	TMhelix	59	78
2735310797	164	inside	79	106
2735310797	164	TMhelix	107	129
2735310797	164	outside	130	138
2735310797	164	TMhelix	139	161
2735310797	164	inside	162	164
2735310798	421	outside	1	421
2735310799	51	inside	1	51
2735310800	44	inside	1	44
2735310801	87	inside	1	87
2735310802	133	inside	1	6
2735310802	133	TMhelix	7	26
2735310802	133	outside	27	40
2735310802	133	TMhelix	41	60
2735310802	133	inside	61	72
2735310802	133	TMhelix	73	92
2735310802	133	outside	93	133
2735310803	592	outside	1	592
2735310804	359	outside	1	359
2735310805	575	inside	1	4
2735310805	575	TMhelix	5	27
2735310805	575	outside	28	31
2735310805	575	TMhelix	32	54
2735310805	575	inside	55	74
2735310805	575	TMhelix	75	97
2735310805	575	outside	98	111
2735310805	575	TMhelix	112	134
2735310805	575	inside	135	140
2735310805	575	TMhelix	141	163
2735310805	575	outside	164	172
2735310805	575	TMhelix	173	192
2735310805	575	inside	193	204
2735310805	575	TMhelix	205	227
2735310805	575	outside	228	230
2735310805	575	TMhelix	231	253
2735310805	575	inside	254	279
2735310805	575	TMhelix	280	299
2735310805	575	outside	300	303
2735310805	575	TMhelix	304	326
2735310805	575	inside	327	337
2735310805	575	TMhelix	338	357
2735310805	575	outside	358	362
2735310805	575	TMhelix	363	385
2735310805	575	inside	386	575
2735310806	336	outside	1	336
2735310807	51	inside	1	51
2735310808	585	outside	1	585
2735310809	600	outside	1	600
2735310810	93	inside	1	93
2735310811	550	outside	1	550
2735310812	410	outside	1	410
2735310813	338	outside	1	338
2735310814	120	outside	1	120
2735310815	124	outside	1	124
2735310816	83	outside	1	83
2735310817	198	outside	1	198
2735310818	507	outside	1	507
2735310819	856	inside	1	127
2735310819	856	TMhelix	128	150
2735310819	856	outside	151	164
2735310819	856	TMhelix	165	187
2735310819	856	inside	188	239
2735310819	856	TMhelix	240	262
2735310819	856	outside	263	265
2735310819	856	TMhelix	266	288
2735310819	856	inside	289	349
2735310819	856	TMhelix	350	372
2735310819	856	outside	373	856
2735310820	52	outside	1	52
2735310822	310	outside	1	310
2735310824	199	outside	1	199
2735310825	438	outside	1	438
2735310826	47	inside	1	47
2735310827	66	outside	1	66
2735310828	217	outside	1	217
2735310829	223	outside	1	223
2735310830	270	outside	1	270
2735310831	152	outside	1	152
2735310832	310	outside	1	310
2735310833	54	inside	1	54
2735310834	63	inside	1	63
2735310835	114	outside	1	114
2735310836	1154	outside	1	1154
2735310837	430	outside	1	430
2735310838	514	outside	1	514
2735310839	78	inside	1	78
2735310840	186	outside	1	186
2735310841	225	outside	1	225
2735310842	362	outside	1	362
2735310843	39	outside	1	39
2735310844	207	outside	1	207
2735310845	226	outside	1	226
2735310846	167	inside	1	167
2735310847	198	outside	1	198
2735310848	73	inside	1	11
2735310848	73	TMhelix	12	34
2735310848	73	outside	35	37
2735310848	73	TMhelix	38	60
2735310848	73	inside	61	73
2735310849	111	outside	1	111
2735310850	423	outside	1	423
2735310851	558	outside	1	558
2735310852	234	outside	1	234
2735310853	128	inside	1	4
2735310853	128	TMhelix	5	27
2735310853	128	outside	28	128
2735310854	192	outside	1	192
2735310855	872	outside	1	872
2735310856	243	outside	1	243
2735310857	254	outside	1	254
2735310858	107	outside	1	107
2735310859	293	outside	1	293
2735310860	75	outside	1	75
2735310861	205	outside	1	205
2735310862	223	outside	1	223
2735310863	280	outside	1	280
2735310864	161	outside	1	161
2735310865	149	outside	1	149
2735310866	146	outside	1	146
2735310867	231	outside	1	231
2735310868	246	inside	1	20
2735310868	246	TMhelix	21	40
2735310868	246	outside	41	54
2735310868	246	TMhelix	55	77
2735310868	246	inside	78	97
2735310868	246	TMhelix	98	132
2735310868	246	outside	133	136
2735310868	246	TMhelix	137	159
2735310868	246	inside	160	188
2735310868	246	TMhelix	189	211
2735310868	246	outside	212	220
2735310868	246	TMhelix	221	240
2735310868	246	inside	241	246
2735310869	229	outside	1	229
2735310870	435	inside	1	6
2735310870	435	TMhelix	7	29
2735310870	435	outside	30	283
2735310870	435	TMhelix	284	306
2735310870	435	inside	307	310
2735310870	435	TMhelix	311	333
2735310870	435	outside	334	347
2735310870	435	TMhelix	348	370
2735310870	435	inside	371	381
2735310870	435	TMhelix	382	404
2735310870	435	outside	405	435
2735310871	178	inside	1	6
2735310871	178	TMhelix	7	29
2735310871	178	outside	30	178
2735310872	438	inside	1	6
2735310872	438	TMhelix	7	29
2735310872	438	outside	30	57
2735310872	438	TMhelix	58	80
2735310872	438	inside	81	100
2735310872	438	TMhelix	101	123
2735310872	438	outside	124	126
2735310872	438	TMhelix	127	144
2735310872	438	inside	145	150
2735310872	438	TMhelix	151	173
2735310872	438	outside	174	187
2735310872	438	TMhelix	188	207
2735310872	438	inside	208	226
2735310872	438	TMhelix	227	249
2735310872	438	outside	250	258
2735310872	438	TMhelix	259	276
2735310872	438	inside	277	282
2735310872	438	TMhelix	283	300
2735310872	438	outside	301	309
2735310872	438	TMhelix	310	332
2735310872	438	inside	333	438
2735310873	336	outside	1	336
2735310874	507	outside	1	507
2735310875	235	outside	1	27
2735310875	235	TMhelix	28	50
2735310875	235	inside	51	77
2735310875	235	TMhelix	78	100
2735310875	235	outside	101	132
2735310875	235	TMhelix	133	155
2735310875	235	inside	156	175
2735310875	235	TMhelix	176	198
2735310875	235	outside	199	207
2735310875	235	TMhelix	208	230
2735310875	235	inside	231	235
2735310876	229	inside	1	20
2735310876	229	TMhelix	21	43
2735310876	229	outside	44	72
2735310876	229	TMhelix	73	95
2735310876	229	inside	96	101
2735310876	229	TMhelix	102	124
2735310876	229	outside	125	127
2735310876	229	TMhelix	128	150
2735310876	229	inside	151	169
2735310876	229	TMhelix	170	192
2735310876	229	outside	193	201
2735310876	229	TMhelix	202	224
2735310876	229	inside	225	229
2735310877	990	inside	1	20
2735310877	990	TMhelix	21	43
2735310877	990	outside	44	990
2735310878	31	inside	1	11
2735310878	31	TMhelix	12	30
2735310878	31	outside	31	31
2735310879	263	outside	1	263
2735310880	66	outside	1	66
2735310881	158	outside	1	158
2735310883	136	inside	1	136
2735310884	89	inside	1	89
2735310885	450	outside	1	450
2735310886	42	inside	1	42
2735310887	212	outside	1	212
2735310888	175	outside	1	175
2735310889	103	outside	1	103
2735310890	153	outside	1	153
2735310891	403	outside	1	403
2735310892	400	outside	1	400
2735310893	153	outside	1	153
2735310894	571	outside	1	571
2735310895	175	outside	1	175
2735310896	398	outside	1	398
2735310897	255	outside	1	255
2735310898	289	outside	1	289
2735310899	874	outside	1	874
2735310900	243	outside	1	243
2735310901	137	outside	1	137
2735310902	450	outside	1	450
2735310903	309	outside	1	309
2735310904	299	outside	1	299
2735310905	282	outside	1	282
2735310906	187	outside	1	187
2735310907	109	outside	1	109
2735310908	339	outside	1	339
2735310909	215	outside	1	215
2735310910	416	inside	1	4
2735310910	416	TMhelix	5	27
2735310910	416	outside	28	31
2735310910	416	TMhelix	32	54
2735310910	416	inside	55	76
2735310910	416	TMhelix	77	99
2735310910	416	outside	100	102
2735310910	416	TMhelix	103	125
2735310910	416	inside	126	165
2735310910	416	TMhelix	166	188
2735310910	416	outside	189	225
2735310910	416	TMhelix	226	248
2735310910	416	inside	249	259
2735310910	416	TMhelix	260	282
2735310910	416	outside	283	285
2735310910	416	TMhelix	286	303
2735310910	416	inside	304	337
2735310910	416	TMhelix	338	356
2735310910	416	outside	357	359
2735310910	416	TMhelix	360	379
2735310910	416	inside	380	391
2735310910	416	TMhelix	392	414
2735310910	416	outside	415	416
2735310911	283	outside	1	283
2735310912	113	outside	1	113
2735310913	751	outside	1	751
2735310914	379	outside	1	379
2735310915	154	outside	1	154
2735310916	162	inside	1	12
2735310916	162	TMhelix	13	35
2735310916	162	outside	36	162
2735310917	139	inside	1	12
2735310917	139	TMhelix	13	32
2735310917	139	outside	33	139
2735310918	212	outside	1	212
2735310919	594	outside	1	594
2735310920	127	outside	1	4
2735310920	127	TMhelix	5	27
2735310920	127	inside	28	127
2735310921	282	inside	1	6
2735310921	282	TMhelix	7	29
2735310921	282	outside	30	282
2735310922	183	outside	1	183
2735310923	553	outside	1	553
2735310924	168	outside	1	168
2735310925	248	outside	1	248
2735310926	210	inside	1	6
2735310926	210	TMhelix	7	25
2735310926	210	outside	26	83
2735310926	210	TMhelix	84	106
2735310926	210	inside	107	210
2735310927	152	outside	1	152
2735310928	186	inside	1	30
2735310928	186	TMhelix	31	53
2735310928	186	outside	54	87
2735310928	186	TMhelix	88	110
2735310928	186	inside	111	121
2735310928	186	TMhelix	122	144
2735310928	186	outside	145	158
2735310928	186	TMhelix	159	178
2735310928	186	inside	179	186
2735310929	88	outside	1	88
2735310930	266	inside	1	12
2735310930	266	TMhelix	13	32
2735310930	266	outside	33	36
2735310930	266	TMhelix	37	59
2735310930	266	inside	60	79
2735310930	266	TMhelix	80	102
2735310930	266	outside	103	144
2735310930	266	TMhelix	145	167
2735310930	266	inside	168	186
2735310930	266	TMhelix	187	209
2735310930	266	outside	210	212
2735310930	266	TMhelix	213	232
2735310930	266	inside	233	238
2735310930	266	TMhelix	239	261
2735310930	266	outside	262	266
2735310931	245	outside	1	245
2735310932	574	outside	1	574
2735310933	140	outside	1	140
2735310934	114	outside	1	114
2735310935	221	outside	1	221
2735310936	383	outside	1	383
2735310937	431	inside	1	12
2735310937	431	TMhelix	13	30
2735310937	431	outside	31	78
2735310937	431	TMhelix	79	101
2735310937	431	inside	102	120
2735310937	431	TMhelix	121	143
2735310937	431	outside	144	146
2735310937	431	TMhelix	147	169
2735310937	431	inside	170	431
2735310938	422	inside	1	6
2735310938	422	TMhelix	7	29
2735310938	422	outside	30	62
2735310938	422	TMhelix	63	85
2735310938	422	inside	86	97
2735310938	422	TMhelix	98	120
2735310938	422	outside	121	422
2735310939	252	outside	1	252
2735310940	199	outside	1	199
2735310941	368	outside	1	368
2735310942	215	outside	1	14
2735310942	215	TMhelix	15	34
2735310942	215	inside	35	49
2735310942	215	TMhelix	50	72
2735310942	215	outside	73	76
2735310942	215	TMhelix	77	99
2735310942	215	inside	100	119
2735310942	215	TMhelix	120	137
2735310942	215	outside	138	151
2735310942	215	TMhelix	152	183
2735310942	215	inside	184	215
2735310943	89	inside	1	4
2735310943	89	TMhelix	5	27
2735310943	89	outside	28	46
2735310943	89	TMhelix	47	69
2735310943	89	inside	70	89
2735310944	123	inside	1	19
2735310944	123	TMhelix	20	42
2735310944	123	outside	43	82
2735310944	123	TMhelix	83	105
2735310944	123	inside	106	123
2735310945	193	outside	1	14
2735310945	193	TMhelix	15	34
2735310945	193	inside	35	54
2735310945	193	TMhelix	55	77
2735310945	193	outside	78	80
2735310945	193	TMhelix	81	103
2735310945	193	inside	104	122
2735310945	193	TMhelix	123	145
2735310945	193	outside	146	159
2735310945	193	TMhelix	160	179
2735310945	193	inside	180	193
2735310946	70	inside	1	70
2735310947	69	inside	1	69
2735310948	176	outside	1	176
2735310949	305	outside	1	305
2735310950	643	inside	1	11
2735310950	643	TMhelix	12	31
2735310950	643	outside	32	606
2735310950	643	TMhelix	607	626
2735310950	643	inside	627	643
2735310951	175	outside	1	175
2735310952	162	outside	1	162
2735310953	130	outside	1	130
2735310954	118	outside	1	118
2735310955	570	outside	1	570
2735310956	67	inside	1	67
2735310957	181	outside	1	181
2735310958	460	outside	1	460
2735310959	128	outside	1	128
2735310960	161	outside	1	161
2735310961	180	inside	1	180
2735310962	69	outside	1	69
2735310963	46	inside	1	46
2735310964	177	outside	1	177
2735310965	176	inside	1	176
2735310966	243	outside	1	243
2735310967	174	outside	1	174
2735310968	134	outside	1	134
2735310969	111	inside	1	111
2735310970	310	outside	1	310
2735310971	335	outside	1	335
2735310972	34	inside	1	34
2735310973	302	outside	1	302
2735310975	478	outside	1	9
2735310975	478	TMhelix	10	32
2735310975	478	inside	33	38
2735310975	478	TMhelix	39	58
2735310975	478	outside	59	77
2735310975	478	TMhelix	78	100
2735310975	478	inside	101	135
2735310975	478	TMhelix	136	158
2735310975	478	outside	159	161
2735310975	478	TMhelix	162	181
2735310975	478	inside	182	192
2735310975	478	TMhelix	193	215
2735310975	478	outside	216	219
2735310975	478	TMhelix	220	239
2735310975	478	inside	240	258
2735310975	478	TMhelix	259	281
2735310975	478	outside	282	290
2735310975	478	TMhelix	291	313
2735310975	478	inside	314	319
2735310975	478	TMhelix	320	342
2735310975	478	outside	343	351
2735310975	478	TMhelix	352	374
2735310975	478	inside	375	394
2735310975	478	TMhelix	395	417
2735310975	478	outside	418	436
2735310975	478	TMhelix	437	459
2735310975	478	inside	460	478
2735310976	86	inside	1	86
2735310977	231	outside	1	231
2735310978	443	outside	1	443
2735310979	302	inside	1	19
2735310979	302	TMhelix	20	42
2735310979	302	outside	43	302
2735310980	50	inside	1	8
2735310980	50	TMhelix	9	26
2735310980	50	outside	27	50
2735310981	943	outside	1	943
2735310982	85	outside	1	85
2735310983	128	inside	1	128
2735310984	547	outside	1	547
2735310985	556	inside	1	6
2735310985	556	TMhelix	7	25
2735310985	556	outside	26	34
2735310985	556	TMhelix	35	54
2735310985	556	inside	55	186
2735310985	556	TMhelix	187	209
2735310985	556	outside	210	556
2735310986	88	outside	1	88
2735310987	78	inside	1	78
2735310988	386	outside	1	386
2735310989	392	outside	1	392
2735310990	278	outside	1	278
2735310991	500	outside	1	9
2735310991	500	TMhelix	10	32
2735310991	500	inside	33	343
2735310991	500	TMhelix	344	361
2735310991	500	outside	362	365
2735310991	500	TMhelix	366	388
2735310991	500	inside	389	445
2735310991	500	TMhelix	446	468
2735310991	500	outside	469	472
2735310991	500	TMhelix	473	495
2735310991	500	inside	496	500
2735310992	193	outside	1	193
2735310993	193	outside	1	14
2735310993	193	TMhelix	15	37
2735310993	193	inside	38	43
2735310993	193	TMhelix	44	66
2735310993	193	outside	67	90
2735310993	193	TMhelix	91	113
2735310993	193	inside	114	124
2735310993	193	TMhelix	125	147
2735310993	193	outside	148	156
2735310993	193	TMhelix	157	179
2735310993	193	inside	180	193
2735310994	147	outside	1	147
2735310995	207	inside	1	6
2735310995	207	TMhelix	7	26
2735310995	207	outside	27	35
2735310995	207	TMhelix	36	58
2735310995	207	inside	59	78
2735310995	207	TMhelix	79	101
2735310995	207	outside	102	115
2735310995	207	TMhelix	116	138
2735310995	207	inside	139	149
2735310995	207	TMhelix	150	172
2735310995	207	outside	173	175
2735310995	207	TMhelix	176	198
2735310995	207	inside	199	207
2735310997	555	outside	1	555
2735310998	158	outside	1	158
2735310999	1530	outside	1	1530
2735311000	298	inside	1	11
2735311000	298	TMhelix	12	34
2735311000	298	outside	35	298
2735311001	97	outside	1	97
2735311002	76	outside	1	76
2735311003	217	outside	1	66
2735311003	217	TMhelix	67	89
2735311003	217	inside	90	217
2735311004	632	outside	1	9
2735311004	632	TMhelix	10	32
2735311004	632	inside	33	50
2735311004	632	TMhelix	51	73
2735311004	632	outside	74	87
2735311004	632	TMhelix	88	110
2735311004	632	inside	111	116
2735311004	632	TMhelix	117	139
2735311004	632	outside	140	632
2735311005	186	outside	1	3
2735311005	186	TMhelix	4	23
2735311005	186	inside	24	124
2735311005	186	TMhelix	125	147
2735311005	186	outside	148	150
2735311005	186	TMhelix	151	173
2735311005	186	inside	174	186
2735311006	246	outside	1	246
2735311007	290	outside	1	290
2735311008	240	inside	1	1
2735311008	240	TMhelix	2	21
2735311008	240	outside	22	240
2735311009	152	inside	1	119
2735311009	152	TMhelix	120	142
2735311009	152	outside	143	152
2735311010	173	outside	1	173
2735311011	154	inside	1	4
2735311011	154	TMhelix	5	27
2735311011	154	outside	28	41
2735311011	154	TMhelix	42	64
2735311011	154	inside	65	154
2735311012	159	outside	1	159
2735311013	1452	outside	1	1452
2735311014	138	outside	1	9
2735311014	138	TMhelix	10	32
2735311014	138	inside	33	65
2735311014	138	TMhelix	66	88
2735311014	138	outside	89	102
2735311014	138	TMhelix	103	125
2735311014	138	inside	126	138
2735311015	65	outside	1	65
2735311016	176	outside	1	176
2735311017	173	inside	1	6
2735311017	173	TMhelix	7	24
2735311017	173	outside	25	28
2735311017	173	TMhelix	29	51
2735311017	173	inside	52	63
2735311017	173	TMhelix	64	81
2735311017	173	outside	82	95
2735311017	173	TMhelix	96	118
2735311017	173	inside	119	157
2735311017	173	TMhelix	158	172
2735311017	173	outside	173	173
2735311018	120	outside	1	120
2735311019	117	outside	1	117
2735311020	116	outside	1	116
2735311021	102	inside	1	102
2735311023	338	outside	1	338
2735311024	100	inside	1	11
2735311024	100	TMhelix	12	34
2735311024	100	outside	35	37
2735311024	100	TMhelix	38	60
2735311024	100	inside	61	71
2735311024	100	TMhelix	72	94
2735311024	100	outside	95	100
2735311025	191	outside	1	191
2735311026	402	outside	1	402
2735311027	296	outside	1	296
2735311028	276	outside	1	276
2735311029	108	outside	1	108
2735311030	291	outside	1	291
2735311031	154	outside	1	154
2735311033	160	inside	1	6
2735311033	160	TMhelix	7	29
2735311033	160	outside	30	160
2735311034	73	inside	1	73
2735311035	35	inside	1	35
2735311036	188	outside	1	4
2735311036	188	TMhelix	5	27
2735311036	188	inside	28	188
2735311037	123	inside	1	20
2735311037	123	TMhelix	21	43
2735311037	123	outside	44	52
2735311037	123	TMhelix	53	75
2735311037	123	inside	76	87
2735311037	123	TMhelix	88	110
2735311037	123	outside	111	123
2735311038	269	outside	1	269
2735311039	169	outside	1	169
2735311040	247	outside	1	247
2735311042	260	outside	1	260
2735311043	194	outside	1	194
2735311044	37	outside	1	37
2735311045	267	outside	1	267
2735311046	131	outside	1	131
2735311047	200	outside	1	200
